<svg id="logo" xmlns="http://www.w3.org/2000/svg" width="334.818" height="49.718" viewBox="0 0 334.818 49.718">
  <g id="Group_242" data-name="Group 242" transform="translate(65.244 17.452)">
    <path id="Path_280" data-name="Path 280" d="M199.039,110.934a1.824,1.824,0,0,1,.6-1.53,2.636,2.636,0,0,1,1.662-.472,4.521,4.521,0,0,1,1.266.17q.585.17.774.246v4.95h5.478a2.44,2.44,0,0,1,1.757.51,2.022,2.022,0,0,1,.51,1.492,3.627,3.627,0,0,1-.189,1.19,7.17,7.17,0,0,1-.3.775h-7.254v8.425a4.152,4.152,0,0,0,.264,1.605,2.494,2.494,0,0,0,.737,1,2.767,2.767,0,0,0,1.1.529,5.516,5.516,0,0,0,1.3.151,5.988,5.988,0,0,0,2.04-.339,5.771,5.771,0,0,0,1.36-.643l1.738,2.872q-.3.227-.85.567a7.857,7.857,0,0,1-1.341.642,12,12,0,0,1-1.776.51,10.421,10.421,0,0,1-2.153.208,6.769,6.769,0,0,1-5.025-1.72,6.141,6.141,0,0,1-1.7-4.515Z" transform="translate(-199.039 -108.932)" fill="#0a0745"/>
    <path id="Path_281" data-name="Path 281" d="M245.84,137.47q-.378.076-1.19.17t-1.908.189q-1.1.094-2.456.17t-2.833.076a18.78,18.78,0,0,1-4.818-.51,8.222,8.222,0,0,1-2.947-1.36,4.366,4.366,0,0,1-1.473-1.965,6.761,6.761,0,0,1-.4-2.286,7.237,7.237,0,0,1,.472-2.72,4.5,4.5,0,0,1,1.549-1.965,7.536,7.536,0,0,1,2.815-1.19,19.342,19.342,0,0,1,4.231-.4q1.436,0,2.72.094t1.927.17a4.9,4.9,0,0,0-.434-2.192,3.4,3.4,0,0,0-1.19-1.36,4.883,4.883,0,0,0-1.813-.68,13.4,13.4,0,0,0-2.343-.189,10.033,10.033,0,0,0-3.457.491,6.937,6.937,0,0,0-1.719.832,4.609,4.609,0,0,1-.624-.718,2.081,2.081,0,0,1-.4-1.285,2.118,2.118,0,0,1,.284-1.039,2.457,2.457,0,0,1,1-.907,6.532,6.532,0,0,1,1.927-.623,17.066,17.066,0,0,1,3.06-.227,17.626,17.626,0,0,1,4.062.435,8.9,8.9,0,0,1,3.155,1.379,6.358,6.358,0,0,1,2.059,2.493,8.655,8.655,0,0,1,.737,3.741Zm-4.27-8.388q-.378-.075-1.417-.226a23.662,23.662,0,0,0-3.117-.151,6.962,6.962,0,0,0-3.74.774,2.712,2.712,0,0,0-1.172,2.437,3.1,3.1,0,0,0,.246,1.247,2.206,2.206,0,0,0,.85.963,4.66,4.66,0,0,0,1.644.6,13.464,13.464,0,0,0,2.588.208,22.579,22.579,0,0,0,2.758-.132q1.02-.132,1.36-.208Z" transform="translate(-212.554 -113.213)" fill="#0a0745"/>
    <path id="Path_282" data-name="Path 282" d="M271.413,128.931a13.282,13.282,0,0,1,.755-4.666,9.517,9.517,0,0,1,2.116-3.4,8.932,8.932,0,0,1,3.287-2.1,12.151,12.151,0,0,1,4.27-.718,10.22,10.22,0,0,1,3.967.756,9.842,9.842,0,0,1,3.155,2.078,9.394,9.394,0,0,1,2.1,3.174,10.5,10.5,0,0,1,.756,4,10.693,10.693,0,0,1-.737,4.024,9.462,9.462,0,0,1-2.04,3.154,9.282,9.282,0,0,1-3.06,2.059,9.818,9.818,0,0,1-3.835.737,8.425,8.425,0,0,1-3.816-.831,7.46,7.46,0,0,1-2.607-2.04V145.1h-4.307Zm10.126,5.289a5.813,5.813,0,0,0,2.361-.472,5.534,5.534,0,0,0,1.851-1.3,5.751,5.751,0,0,0,1.19-1.965,7.081,7.081,0,0,0,.416-2.456,6.82,6.82,0,0,0-.416-2.4,5.6,5.6,0,0,0-1.19-1.927,5.694,5.694,0,0,0-1.851-1.285,5.822,5.822,0,0,0-2.361-.472,6.022,6.022,0,0,0-2.361.453,5.474,5.474,0,0,0-3.061,3.155,7.212,7.212,0,0,0,0,4.93,6.158,6.158,0,0,0,1.19,1.965,5.34,5.34,0,0,0,1.832,1.3A5.908,5.908,0,0,0,281.539,134.22Z" transform="translate(-233.027 -113.213)" fill="#0a0745"/>
    <path id="Path_283" data-name="Path 283" d="M318.072,128.931a13.269,13.269,0,0,1,.756-4.666,9.5,9.5,0,0,1,2.116-3.4,8.929,8.929,0,0,1,3.287-2.1,12.151,12.151,0,0,1,4.27-.718,10.223,10.223,0,0,1,3.967.756,9.845,9.845,0,0,1,3.155,2.078,9.387,9.387,0,0,1,2.1,3.174,10.5,10.5,0,0,1,.756,4,10.693,10.693,0,0,1-.737,4.024,9.454,9.454,0,0,1-2.04,3.154,9.282,9.282,0,0,1-3.06,2.059,9.818,9.818,0,0,1-3.835.737,8.427,8.427,0,0,1-3.816-.831,7.458,7.458,0,0,1-2.607-2.04V145.1h-4.307ZM328.2,134.22a5.811,5.811,0,0,0,2.361-.472,5.536,5.536,0,0,0,1.852-1.3,5.75,5.75,0,0,0,1.19-1.965,7.08,7.08,0,0,0,.415-2.456,6.819,6.819,0,0,0-.415-2.4,5.6,5.6,0,0,0-1.19-1.927,5.7,5.7,0,0,0-1.852-1.285,5.82,5.82,0,0,0-2.361-.472,6.022,6.022,0,0,0-2.361.453,5.471,5.471,0,0,0-3.06,3.155,7.212,7.212,0,0,0,0,4.93,6.139,6.139,0,0,0,1.19,1.965,5.333,5.333,0,0,0,1.832,1.3A5.908,5.908,0,0,0,328.2,134.22Z" transform="translate(-254.938 -113.213)" fill="#0a0745"/>
    <path id="Path_284" data-name="Path 284" d="M401.406,136.185a9.425,9.425,0,0,1-1.114.624,12.548,12.548,0,0,1-1.512.6,13.534,13.534,0,0,1-1.926.472,14.223,14.223,0,0,1-2.438.189,12.02,12.02,0,0,1-3.967-.643,9.333,9.333,0,0,1-3.25-1.908,9.032,9.032,0,0,1-2.21-3.117,10.527,10.527,0,0,1-.813-4.269,11.041,11.041,0,0,1,.793-4.307,8.952,8.952,0,0,1,2.192-3.174,9.354,9.354,0,0,1,3.306-1.946,12.448,12.448,0,0,1,4.1-.661,14.2,14.2,0,0,1,3.155.3,8.2,8.2,0,0,1,2.116.756,3.178,3.178,0,0,1,1.171,1.02,2.107,2.107,0,0,1,.359,1.134,2.2,2.2,0,0,1-.51,1.4,5.5,5.5,0,0,1-.963.983,7.275,7.275,0,0,0-1.965-1.228,7.65,7.65,0,0,0-3.174-.586,7.435,7.435,0,0,0-2.4.378,5.158,5.158,0,0,0-1.927,1.153,5.5,5.5,0,0,0-1.285,1.927,7.2,7.2,0,0,0-.472,2.739,7.309,7.309,0,0,0,.491,2.833,5.119,5.119,0,0,0,1.36,1.927,5.573,5.573,0,0,0,2,1.115,8.093,8.093,0,0,0,2.456.359,7.611,7.611,0,0,0,3.042-.51,13.856,13.856,0,0,0,1.568-.774Z" transform="translate(-285.982 -113.213)" fill="#0a0745"/>
    <path id="Path_285" data-name="Path 285" d="M431.966,118.049a11.04,11.04,0,0,1,4.1.756,10.1,10.1,0,0,1,3.306,2.1,9.684,9.684,0,0,1,2.192,3.174,10.313,10.313,0,0,1,0,7.934,9.673,9.673,0,0,1-2.192,3.174,10.325,10.325,0,0,1-3.306,2.116,11.231,11.231,0,0,1-8.2,0,10.313,10.313,0,0,1-3.306-2.116,9.665,9.665,0,0,1-2.192-3.174,10.313,10.313,0,0,1,0-7.934,9.676,9.676,0,0,1,2.192-3.174,10.083,10.083,0,0,1,3.306-2.1A11.038,11.038,0,0,1,431.966,118.049Zm0,16.209a5.949,5.949,0,0,0,2.38-.472,5.367,5.367,0,0,0,1.87-1.322,6.282,6.282,0,0,0,1.209-1.965,6.665,6.665,0,0,0,.434-2.437,6.972,6.972,0,0,0-.434-2.475,5.968,5.968,0,0,0-1.209-1.984,5.513,5.513,0,0,0-1.87-1.3,6.285,6.285,0,0,0-4.779,0,5.553,5.553,0,0,0-1.852,1.3,5.951,5.951,0,0,0-1.209,1.984,6.948,6.948,0,0,0-.435,2.475,6.643,6.643,0,0,0,.435,2.437,6.263,6.263,0,0,0,1.209,1.965,5.4,5.4,0,0,0,1.852,1.322A5.9,5.9,0,0,0,431.966,134.258Z" transform="translate(-303.545 -113.213)" fill="#0a0745"/>
    <path id="Path_286" data-name="Path 286" d="M469.731,125.341a7.357,7.357,0,0,1,.642-3.174,6.394,6.394,0,0,1,1.757-2.267,7.792,7.792,0,0,1,2.625-1.379,10.98,10.98,0,0,1,3.287-.473,9.761,9.761,0,0,1,4.194.869,6.953,6.953,0,0,1,2.947,2.569,7,7,0,0,1,2.909-2.569,9.418,9.418,0,0,1,4.118-.869,11.275,11.275,0,0,1,3.249.453,7.349,7.349,0,0,1,2.607,1.36,6.5,6.5,0,0,1,1.738,2.267,7.363,7.363,0,0,1,.642,3.174v12.241h-4.307V126.777a4.977,4.977,0,0,0-1.171-3.722,4.416,4.416,0,0,0-3.174-1.114,4.489,4.489,0,0,0-3.23,1.247,5.393,5.393,0,0,0-1.3,4.043v10.314h-4.307V127.231a5.4,5.4,0,0,0-1.3-4.043,4.906,4.906,0,0,0-6.4-.114,4.942,4.942,0,0,0-1.209,3.74v10.73h-4.307Z" transform="translate(-326.159 -113.213)" fill="#0a0745"/>
    <path id="Path_287" data-name="Path 287" d="M537.19,128.931a13.27,13.27,0,0,1,.756-4.666,9.508,9.508,0,0,1,2.115-3.4,8.931,8.931,0,0,1,3.287-2.1,12.148,12.148,0,0,1,4.269-.718,10.219,10.219,0,0,1,3.967.756,9.842,9.842,0,0,1,3.155,2.078,9.394,9.394,0,0,1,2.1,3.174,10.5,10.5,0,0,1,.756,4,10.683,10.683,0,0,1-.737,4.024,9.445,9.445,0,0,1-2.04,3.154,9.282,9.282,0,0,1-3.06,2.059,9.818,9.818,0,0,1-3.835.737,8.427,8.427,0,0,1-3.816-.831,7.461,7.461,0,0,1-2.607-2.04V145.1H537.19Zm10.126,5.289a5.811,5.811,0,0,0,2.361-.472,5.54,5.54,0,0,0,1.852-1.3,5.75,5.75,0,0,0,1.19-1.965,7.08,7.08,0,0,0,.416-2.456,6.819,6.819,0,0,0-.416-2.4,5.6,5.6,0,0,0-1.19-1.927,5.7,5.7,0,0,0-1.852-1.285,5.82,5.82,0,0,0-2.361-.472,6.026,6.026,0,0,0-2.362.453,5.475,5.475,0,0,0-3.06,3.155,7.212,7.212,0,0,0,0,4.93,6.158,6.158,0,0,0,1.19,1.965,5.339,5.339,0,0,0,1.833,1.3A5.908,5.908,0,0,0,547.316,134.22Z" transform="translate(-357.839 -113.213)" fill="#0a0745"/>
    <path id="Path_288" data-name="Path 288" d="M600.945,137.47q-.378.076-1.19.17t-1.908.189q-1.1.094-2.456.17t-2.833.076a18.782,18.782,0,0,1-4.818-.51,8.23,8.23,0,0,1-2.947-1.36,4.37,4.37,0,0,1-1.473-1.965,6.761,6.761,0,0,1-.4-2.286,7.237,7.237,0,0,1,.472-2.72,4.5,4.5,0,0,1,1.549-1.965,7.54,7.54,0,0,1,2.815-1.19,19.342,19.342,0,0,1,4.231-.4q1.435,0,2.721.094t1.926.17a4.9,4.9,0,0,0-.434-2.192,3.391,3.391,0,0,0-1.19-1.36,4.88,4.88,0,0,0-1.813-.68,13.4,13.4,0,0,0-2.343-.189,10.035,10.035,0,0,0-3.457.491,6.937,6.937,0,0,0-1.719.832,4.58,4.58,0,0,1-.623-.718,2.077,2.077,0,0,1-.4-1.285,2.117,2.117,0,0,1,.283-1.039,2.455,2.455,0,0,1,1-.907,6.521,6.521,0,0,1,1.927-.623,17.058,17.058,0,0,1,3.06-.227,17.629,17.629,0,0,1,4.062.435,8.9,8.9,0,0,1,3.155,1.379,6.356,6.356,0,0,1,2.059,2.493,8.655,8.655,0,0,1,.737,3.741Zm-4.269-8.388q-.379-.075-1.417-.226a23.657,23.657,0,0,0-3.117-.151,6.964,6.964,0,0,0-3.74.774,2.711,2.711,0,0,0-1.171,2.437,3.092,3.092,0,0,0,.246,1.247,2.2,2.2,0,0,0,.85.963,4.656,4.656,0,0,0,1.643.6,13.468,13.468,0,0,0,2.588.208,22.573,22.573,0,0,0,2.758-.132q1.02-.132,1.36-.208Z" transform="translate(-379.316 -113.213)" fill="#0a0745"/>
    <path id="Path_289" data-name="Path 289" d="M627.372,126.1a7.882,7.882,0,0,1,.7-3.382A7.372,7.372,0,0,1,630,120.184a8.557,8.557,0,0,1,2.909-1.586,11.842,11.842,0,0,1,3.684-.548,12.022,12.022,0,0,1,3.7.548,8.527,8.527,0,0,1,2.928,1.586,7.177,7.177,0,0,1,1.908,2.532,8.071,8.071,0,0,1,.68,3.382v11.448H641.5V127.193a5.545,5.545,0,0,0-1.246-3.911,5.7,5.7,0,0,0-7.349,0,5.6,5.6,0,0,0-1.228,3.911v10.352h-4.307Z" transform="translate(-400.19 -113.213)" fill="#0a0745"/>
    <path id="Path_290" data-name="Path 290" d="M672.535,121.049a1.831,1.831,0,0,1,.6-1.511,2.563,2.563,0,0,1,1.662-.491,4.534,4.534,0,0,1,1.266.17q.586.17.775.246V129.55a5.109,5.109,0,0,0,1.19,3.551,4.713,4.713,0,0,0,3.683,1.323,4.863,4.863,0,0,0,3.627-1.341,5.4,5.4,0,0,0,1.322-3.948v-8.086a1.833,1.833,0,0,1,.6-1.511,2.563,2.563,0,0,1,1.662-.491,4.541,4.541,0,0,1,1.266.17q.585.17.774.246v16.549a12.742,12.742,0,0,1-.718,4.552,7.7,7.7,0,0,1-5.214,4.837,14.52,14.52,0,0,1-4.119.547,21.752,21.752,0,0,1-2.833-.17q-1.285-.17-2.286-.4t-1.644-.435q-.643-.208-.906-.321.3-.793.566-1.605t.529-1.606q.264.114.831.3a13.067,13.067,0,0,0,1.36.359q.793.17,1.795.283a19.06,19.06,0,0,0,2.135.114,10.023,10.023,0,0,0,2.645-.321,4.487,4.487,0,0,0,1.984-1.114,5.148,5.148,0,0,0,1.247-2.1,10.491,10.491,0,0,0,.434-3.268,5.145,5.145,0,0,1-2.362,1.757,9.19,9.19,0,0,1-3.532.661,10.7,10.7,0,0,1-3.363-.51,7.5,7.5,0,0,1-2.645-1.473,6.681,6.681,0,0,1-1.719-2.4,8.178,8.178,0,0,1-.624-3.287Z" transform="translate(-421.399 -113.682)" fill="#0a0745"/>
  </g>
  <g id="Group_243" data-name="Group 243" transform="translate(29.848 14.12)">
    <path id="Path_291" data-name="Path 291" d="M132.3,104.37l4.221-1.722v35.22H132.3Z" transform="translate(-132.302 -102.648)" fill="#4bb061"/>
  </g>
  <g id="Group_244" data-name="Group 244" transform="translate(36.104 11.562)">
    <path id="Path_292" data-name="Path 292" d="M148.318,97.826V135.6H144.1V99.548Z" transform="translate(-144.097 -97.826)" fill="#69c1db"/>
  </g>
  <g id="Group_245" data-name="Group 245">
    <path id="Path_293" data-name="Path 293" d="M83.626,125.367h-7.6V105.633a21.025,21.025,0,0,1,13-19.474l24.407-10.131,2.913,7.018L91.943,93.176a13.449,13.449,0,0,0-8.318,12.457Z" transform="translate(-76.028 -76.027)" fill="#0a0745"/>
  </g>
</svg>
